<?xml version="1.0" encoding="UTF-8"?>
<svg width="31px" height="31px" viewBox="0 0 31 31" version="1.1" xmlns="http://www.w3.org/2000/svg" xmlns:xlink="http://www.w3.org/1999/xlink">
    <!-- Generator: sketchtool 48.2 (47327) - http://www.bohemiancoding.com/sketch -->
    <title>360A9974-563D-4941-A90D-04B60466A660</title>
    <desc>Created with sketchtool.</desc>
    <defs></defs>
    <g id="Registration-Select-avatar" stroke="none" stroke-width="1" fill="none" fill-rule="evenodd" transform="translate(-1110.000000, -22.000000)">
        <g id="Header-window" transform="translate(584.000000, 0.000000)" fill="#FFFFFF" fill-rule="nonzero">
            <path d="M541.177717,35.1674998 L554.345217,22 L556.355434,24.0102175 L543.187935,37.1777172 L556.355434,50.345217 L554.345217,52.3554344 L541.177717,39.1879347 L528.010217,52.3554344 L526,50.345217 L539.1675,37.1777172 L526,24.0102175 L528.010217,22 L541.177717,35.1674998 Z" id="Combined-Shape"></path>
        </g>
    </g>
</svg>